%!PS-Adobe-3.0 EPSF-3.0
%%BoundingBox: 0 0 2902 2177
%%HiResBoundingBox: 0 0 2902.68 2177.01
%%Creator: CreEPSCREEPS_MAJOR_VERSION.CREEPS_MINOR_VERSION
%%CreationDate: Mon Oct 29 02:27:26 2018
%%EndComments
%CreEPS by Uwe Fabricius, http://uwefabricius.de/ &
%		  Thomas Pohl,   http://thomas-pohl.info/
gsave
/a {arc} bind def
/an {arcn} bind def
/at {arct} bind def
/c {closepath} bind def
/cc {concat} bind def
/cp {clip} bind def
/ct {curveto} bind def
/ec {eoclip} bind def
/ef {eofill} bind def
/f {fill} bind def
/fss {findfont exch scalefont setfont} bind def
/ic {initclip} bind def
/im {/OriginalCTM load setmatrix} bind def
/l {lineto} bind def
/m {moveto} bind def
/n {newpath} bind def
/o {dup 3 index add 2 index m 0 360 a c} bind def
/rct {curveto} bind def
/rf {rectfill} bind def
/rl {rlineto} bind def
/rm {rmoveto} bind def
/rs {rectstroke} bind def
/r {rotate} bind def
/s {stroke} bind def
/sc {setrgbcolor} bind def
/sd {setdash} bind def
/sg {setgray} bind def
/sj {setlinejoin} bind def
/sl {scale} bind def
/sp {setlinecap} bind def
/sw {setlinewidth} bind def
/t {translate} bind def
/x {gsave} bind def
/y {grestore} bind def
/ms {matrix currentmatrix} bind def
/ml {setmatrix} bind def
/ea {ms 8 1 roll t r sl 0 0 1 5 -2 roll a ml} bind def
/ean {ms 8 1 roll t r sl 0 0 1 5 -2 roll an ml} bind def
/e {ms 6 1 roll t r sl 1 0 m 0 0 1 0 360 a c ml} bind def
/tacwh {x n 0 0 m dup true charpath pathbbox 3 -1 roll 4 2 roll exch sub 3 1 roll y} bind def
/ta {m tacwh} bind def
/talb {ta neg 0 exch rmoveto pop pop show} bind def
/tacb {ta neg 0 exch rmoveto pop 2 div neg 0 rmoveto show} bind def
/tarb {ta neg 0 exch rmoveto pop neg 0 rmoveto show} bind def
/taln {ta pop pop pop show} bind def
/tacn {ta pop pop 2 div neg 0 rmoveto show} bind def
/tarn {ta pop pop neg 0 rmoveto show} bind def
/talc {ta add neg 2 div 0 exch rmoveto pop show} bind def
/tacc {ta add neg 2 div 0 exch rmoveto 2 div neg 0 rmoveto show} bind def
/tarc {ta add neg 2 div 0 exch rmoveto neg 0 rmoveto show} bind def
/talt {ta pop neg 0 exch rmoveto pop show} bind def
/tact {ta pop neg 0 exch rmoveto 2 div neg 0 rmoveto show} bind def
/tart {ta pop neg 0 exch rmoveto neg 0 rmoveto show} bind def
/tar {m tacwh x 5 -1 roll r} bind def
/tarlb {tar neg 0 exch rmoveto pop pop show y} bind def
/tarcb {tar neg 0 exch rmoveto pop 2 div neg 0 rmoveto show y} bind def
/tarrb {tar neg 0 exch rmoveto pop neg 0 rmoveto show y} bind def
/tarln {tar pop pop pop show y} bind def
/tarcn {tar pop pop 2 div neg 0 rmoveto show y} bind def
/tarrn {tar pop pop neg 0 rmoveto show y} bind def
/tarlc {tar add neg 2 div 0 exch rmoveto pop show y} bind def
/tarcc {tar add neg 2 div 0 exch rmoveto 2 div neg 0 rmoveto show y} bind def
/tarrc {tar add neg 2 div 0 exch rmoveto neg 0 rmoveto show y} bind def
/tarlt {tar pop neg 0 exch rmoveto pop show y} bind def
/tarct {tar pop neg 0 exch rmoveto 2 div neg 0 rmoveto show y} bind def
/tarrt {tar pop neg 0 exch rmoveto neg 0 rmoveto show y} bind def
/epsb {/b4_Inc_state save def /dict_count countdictstack def /op_count count 1 sub def userdict begin /showpage { } def 0 setgray 0 setlinecap 1 setlinewidth 0 setlinejoin 10 setmiterlimit [ ] 0 setdash newpath /languagelevel where {pop languagelevel 1 ne {false setstrokeadjust false setoverprint } if } if} bind def
/epse {count op_count sub {pop} repeat countdictstack dict_count sub {end} repeat b4_Inc_state restore} bind def
/latin {dup findfont dup length dict begin {1 index /FID ne {def} {pop pop} ifelse} forall /Encoding ISOLatin1Encoding def currentdict end definefont pop} bind def
/Courier-Bold latin
/Times-Roman latin
/Times-Italic latin
/Times-Bold latin
/Times-BoldItalic latin
/Helvetica latin
/Helvetica-Oblique latin
/Helvetica-Bold latin
/Helvetica-BoldOblique latin
/Courier latin
/Courier-Oblique latin
/Courier-Bold latin
/Courier-BoldOblique latin
2.83465 2.83465 sl
<< /OriginalCTM matrix currentmatrix >> begin
3.52778 /Times-Roman fss
1 sw
0 768 t
1 -1 sl
0 0.533333 0.933333 sc
151 139 m
151 139 151 139 151 139 ct
151 139 151 139 151 139 ct
151 139 151 139 151 139 ct
151 139 151 139 151 139 ct
151 139 151 139 151 139 ct
151 139 151 139 151 139 ct
151 139 151 139 151 139 ct
151 139 151 139 151 139 ct
151 139 151 139 151 139 ct
151 139 151 139 151 139 ct
151 139 151.167 139.167 151 139 ct
150.833 138.833 150 138 150 138 ct
150 138 150.833 138.833 151 139 ct
151.167 139.167 151 139 151 139 ct
151 139 151 139 151 139 ct
151 139 151 139 151 139 ct
151 139 151 139 151 139 ct
151 139 151 139 151 139 ct
151 139 132.333 141.167 151 139 ct
169.667 136.833 263 126 263 126 ct
263 126 169.667 136.833 151 139 ct
132.333 141.167 151 139 151 139 ct
151 139 151 139 151 139 ct
151 139 151 139 151 139 ct
151 139 151 138.833 151 139 ct
151 139.167 151 140 151 140 ct
151 140 151 139.167 151 139 ct
151 138.833 151 139 151 139 ct
151 139 151 139 151 139 ct
151 139 151.167 139 151 139 ct
150.833 139 150.167 139 150 139 ct
149.833 139 150 139 150 139 ct
150 139 150 139 150 139 ct
150 139 149.833 139 150 139 ct
150.167 139 151 139 151 139 ct
151 139 150.167 139 150 139 ct
149.833 139 149.833 139.167 150 139 ct
150.167 138.833 151 137.5 151 138 ct
151 138.5 150.167 141.333 150 142 ct
149.833 142.667 150 142.667 150 142 ct
150 141.333 150.667 138.333 150 138 ct
149.333 137.667 127.167 142 146 140 ct
164.833 138 243.5 128.333 263 126 ct
282.5 123.667 263 126 263 126 ct
263 126 263 126 263 126 ct
263 126 263 126 263 126 ct
263 126 263 126 263 126 ct
263 126 262.833 126 263 126 ct
263.167 126 263.667 126.167 264 126 ct
264.333 125.833 264.667 125.333 265 125 ct
265.333 124.667 293 135.5 266 124 ct
239 112.5 103.167 55.6667 103 56 ct
102.833 56.3333 238 114.5 265 126 ct
292 137.5 265.167 125 265 125 ct
264.833 125 264.167 125.833 264 126 ct
263.833 126.167 263.833 126.167 264 126 ct
264.167 125.833 291.833 136.833 265 125 ct
238.167 113.167 130.333 66.3333 103 55 ct
75.6667 43.6667 101 56.8333 101 57 ct
101 57.1667 103 56 103 56 ct
103 56 101 55.3333 101 57 ct
101 58.6667 102.833 66.3333 103 66 ct
103.167 65.6667 102 56.6667 102 55 ct
102 53.3333 102.667 54.1667 103 56 ct
103.333 57.8333 104.333 65.3333 104 66 ct
103.667 66.6667 101.167 61.8333 101 60 ct
100.833 58.1667 102.833 55.1667 103 55 ct
103.167 54.8333 102.167 58.3333 102 59 ct
101.833 59.6667 101.833 59.5 102 59 ct
102.167 58.5 102.833 56.5 103 56 ct
s
im
y
end
showpage
%End of CreEPS generated file
%%EOF
