%!PS-Adobe-3.0 EPSF-3.0
%%BoundingBox: 0 0 2902 2177
%%HiResBoundingBox: 0 0 2902.68 2177.01
%%Creator: CreEPSCREEPS_MAJOR_VERSION.CREEPS_MINOR_VERSION
%%CreationDate: Mon Oct 29 02:57:31 2018
%%EndComments
%CreEPS by Uwe Fabricius, http://uwefabricius.de/ &
%		  Thomas Pohl,   http://thomas-pohl.info/
gsave
/a {arc} bind def
/an {arcn} bind def
/at {arct} bind def
/c {closepath} bind def
/cc {concat} bind def
/cp {clip} bind def
/ct {curveto} bind def
/ec {eoclip} bind def
/ef {eofill} bind def
/f {fill} bind def
/fss {findfont exch scalefont setfont} bind def
/ic {initclip} bind def
/im {/OriginalCTM load setmatrix} bind def
/l {lineto} bind def
/m {moveto} bind def
/n {newpath} bind def
/o {dup 3 index add 2 index m 0 360 a c} bind def
/rct {curveto} bind def
/rf {rectfill} bind def
/rl {rlineto} bind def
/rm {rmoveto} bind def
/rs {rectstroke} bind def
/r {rotate} bind def
/s {stroke} bind def
/sc {setrgbcolor} bind def
/sd {setdash} bind def
/sg {setgray} bind def
/sj {setlinejoin} bind def
/sl {scale} bind def
/sp {setlinecap} bind def
/sw {setlinewidth} bind def
/t {translate} bind def
/x {gsave} bind def
/y {grestore} bind def
/ms {matrix currentmatrix} bind def
/ml {setmatrix} bind def
/ea {ms 8 1 roll t r sl 0 0 1 5 -2 roll a ml} bind def
/ean {ms 8 1 roll t r sl 0 0 1 5 -2 roll an ml} bind def
/e {ms 6 1 roll t r sl 1 0 m 0 0 1 0 360 a c ml} bind def
/tacwh {x n 0 0 m dup true charpath pathbbox 3 -1 roll 4 2 roll exch sub 3 1 roll y} bind def
/ta {m tacwh} bind def
/talb {ta neg 0 exch rmoveto pop pop show} bind def
/tacb {ta neg 0 exch rmoveto pop 2 div neg 0 rmoveto show} bind def
/tarb {ta neg 0 exch rmoveto pop neg 0 rmoveto show} bind def
/taln {ta pop pop pop show} bind def
/tacn {ta pop pop 2 div neg 0 rmoveto show} bind def
/tarn {ta pop pop neg 0 rmoveto show} bind def
/talc {ta add neg 2 div 0 exch rmoveto pop show} bind def
/tacc {ta add neg 2 div 0 exch rmoveto 2 div neg 0 rmoveto show} bind def
/tarc {ta add neg 2 div 0 exch rmoveto neg 0 rmoveto show} bind def
/talt {ta pop neg 0 exch rmoveto pop show} bind def
/tact {ta pop neg 0 exch rmoveto 2 div neg 0 rmoveto show} bind def
/tart {ta pop neg 0 exch rmoveto neg 0 rmoveto show} bind def
/tar {m tacwh x 5 -1 roll r} bind def
/tarlb {tar neg 0 exch rmoveto pop pop show y} bind def
/tarcb {tar neg 0 exch rmoveto pop 2 div neg 0 rmoveto show y} bind def
/tarrb {tar neg 0 exch rmoveto pop neg 0 rmoveto show y} bind def
/tarln {tar pop pop pop show y} bind def
/tarcn {tar pop pop 2 div neg 0 rmoveto show y} bind def
/tarrn {tar pop pop neg 0 rmoveto show y} bind def
/tarlc {tar add neg 2 div 0 exch rmoveto pop show y} bind def
/tarcc {tar add neg 2 div 0 exch rmoveto 2 div neg 0 rmoveto show y} bind def
/tarrc {tar add neg 2 div 0 exch rmoveto neg 0 rmoveto show y} bind def
/tarlt {tar pop neg 0 exch rmoveto pop show y} bind def
/tarct {tar pop neg 0 exch rmoveto 2 div neg 0 rmoveto show y} bind def
/tarrt {tar pop neg 0 exch rmoveto neg 0 rmoveto show y} bind def
/epsb {/b4_Inc_state save def /dict_count countdictstack def /op_count count 1 sub def userdict begin /showpage { } def 0 setgray 0 setlinecap 1 setlinewidth 0 setlinejoin 10 setmiterlimit [ ] 0 setdash newpath /languagelevel where {pop languagelevel 1 ne {false setstrokeadjust false setoverprint } if } if} bind def
/epse {count op_count sub {pop} repeat countdictstack dict_count sub {end} repeat b4_Inc_state restore} bind def
/latin {dup findfont dup length dict begin {1 index /FID ne {def} {pop pop} ifelse} forall /Encoding ISOLatin1Encoding def currentdict end definefont pop} bind def
/Courier-Bold latin
/Times-Roman latin
/Times-Italic latin
/Times-Bold latin
/Times-BoldItalic latin
/Helvetica latin
/Helvetica-Oblique latin
/Helvetica-Bold latin
/Helvetica-BoldOblique latin
/Courier latin
/Courier-Oblique latin
/Courier-Bold latin
/Courier-BoldOblique latin
2.83465 2.83465 sl
<< /OriginalCTM matrix currentmatrix >> begin
3.52778 /Times-Roman fss
1 sw
0 768 t
1 -1 sl
0 0.533333 0.933333 sc
214 152 m
213.833 152 213.167 152 213 152 ct
212.833 152 213 151.833 213 152 ct
213 152.167 213 152.833 213 153 ct
213 153.167 213.333 153 213 153 ct
212.667 153 211 153.167 211 153 ct
211 152.833 212.667 152.333 213 152 ct
213.333 151.667 213 151.167 213 151 ct
213 150.833 213 151 213 151 ct
213 151 213.167 151.333 213 151 ct
212.833 150.667 212.333 149.667 212 149 ct
211.667 148.333 212.333 148 211 147 ct
209.667 146 206.833 145.667 204 143 ct
201.167 140.333 197 132.833 194 131 ct
191 129.167 187.5 131.167 186 132 ct
184.5 132.833 186.167 134.333 185 136 ct
183.833 137.667 180.5 141 179 142 ct
177.5 143 175.833 141.833 176 142 ct
176.167 142.167 179.5 142.833 180 143 ct
180.5 143.167 179.167 143 179 143 ct
178.833 143 179.333 143.167 179 143 ct
178.667 142.833 177.333 142.167 177 142 ct
176.667 141.833 176.833 142 177 142 ct
177.167 142 177.833 142 178 142 ct
178.167 142 177.833 142 178 142 ct
178.167 142 178.833 142 179 142 ct
179.167 142 179 142 179 142 ct
179 142 179 142 179 142 ct
179 142 179.167 142 179 142 ct
178.833 142 178.333 142 178 142 ct
177.667 142 177 142 177 142 ct
177 142 177.5 142 178 142 ct
178.5 142 179.833 142 180 142 ct
180.167 142 179.167 142 179 142 ct
178.833 142 179 142 179 142 ct
179 142 179 142 179 142 ct
179 142 179 142 179 142 ct
179 142 179 142 179 142 ct
179 142 179 142 179 142 ct
179 142 179 142 179 142 ct
179 142 179 142 179 142 ct
179 142 179 142 179 142 ct
179 142 179 142 179 142 ct
179 142 179 142 179 142 ct
179 142 197.5 147.333 179 142 ct
160.5 136.667 86.6667 115.5 68 110 ct
49.3333 104.5 67 109.167 67 109 ct
67 108.833 67.8333 109.167 68 109 ct
68.1667 108.833 68 107.833 68 108 ct
68 108.167 68 109.667 68 110 ct
68 110.333 68 110 68 110 ct
68 110 68 110 68 110 ct
68 110 68 110 68 110 ct
68 110 68.1667 110 68 110 ct
67.8333 110 67.1667 110 67 110 ct
66.8333 110 66.8333 109.833 67 110 ct
67.1667 110.167 68 110.833 68 111 ct
68 111.167 67.1667 111 67 111 ct
66.8333 111 67 111 67 111 ct
67 111 67 111 67 111 ct
67 111 67 111.167 67 111 ct
67 110.833 66.8333 110 67 110 ct
67.1667 110 68 111 68 111 ct
68 111 67.1667 110 67 110 ct
66.8333 110 67 110.833 67 111 ct
67 111.167 67.3333 111.5 67 111 ct
66.6667 110.5 65.1667 108.5 65 108 ct
64.8333 107.5 66 108 66 108 ct
66 108 68 107.5 65 108 ct
62 108.5 50.8333 110.5 48 111 ct
45.1667 111.5 48 111 48 111 ct
48 111 48 111 48 111 ct
48 111 48 110.833 48 111 ct
48 111.167 48 112.167 48 112 ct
48 111.833 48 110 48 110 ct
48 110 48 111.667 48 112 ct
48 112.333 48 112 48 112 ct
48 112 48 112 48 112 ct
48 112 48 112 48 112 ct
48 112 48 112.167 48 112 ct
48 111.833 48 111 48 111 ct
48 111 48 112 48 112 ct
48 112 48 111.333 48 111 ct
48 110.667 48 110 48 110 ct
48 110 48 110.833 48 111 ct
48 111.167 48 110.833 48 111 ct
48 111.167 44.8333 112 48 112 ct
51.1667 112 63.3333 111.333 67 111 ct
70.6667 110.667 69 111 70 110 ct
71 109 72.5 105.833 73 105 ct
73.5 104.167 73 105 73 105 ct
73 105 73 105 73 105 ct
73 105 73 105 73 105 ct
73 105 73 105 73 105 ct
73 105 75.6667 105.5 73 105 ct
70.3333 104.5 59.6667 102.5 57 102 ct
54.3333 101.5 43 86.6667 57 102 ct
71 117.333 127.333 179.833 141 194 ct
154.667 208.167 139.333 188.167 139 187 ct
138.667 185.833 139 187.167 139 187 ct
139 186.833 138.833 185.5 139 186 ct
139.167 186.5 139.833 189.333 140 190 ct
140.167 190.667 140 190 140 190 ct
140 190 140 190 140 190 ct
140 190 156 204.833 140 190 ct
124 175.167 59.3333 117.5 44 101 ct
28.6667 84.5 46.8333 94 48 91 ct
49.1667 88 50.3333 83.8333 51 83 ct
51.6667 82.1667 51.3333 86.6667 52 86 ct
52.6667 85.3333 54.5 80.1667 55 79 ct
55.5 77.8333 55 79 55 79 ct
55 79 55 79 55 79 ct
55 79 55 79 55 79 ct
55 79 55 79 55 79 ct
55 79 55 79 55 79 ct
55 79 55 79 55 79 ct
55 79 55 79 55 79 ct
55 79 55 79.1667 55 79 ct
55 78.8333 55 78.1667 55 78 ct
55 77.8333 55 78 55 78 ct
55 78 55 78 55 78 ct
55 78 55 78 55 78 ct
55 78 55 78 55 78 ct
55 78 55 78 55 78 ct
55 78 55 78 55 78 ct
55 78 55 78 55 78 ct
55 78 55 78 55 78 ct
55 78 55 77.8333 55 78 ct
55 78.1667 55 78.8333 55 79 ct
55 79.1667 55 79 55 79 ct
55 79 55 79 55 79 ct
55 79 55 79 55 79 ct
55 79 55 79 55 79 ct
55 79 55 79 55 79 ct
55 79 55 79 55 79 ct
55 79 55 79 55 79 ct
55 79 55 79 55 79 ct
55 79 55 79 55 79 ct
55 79 55 79 55 79 ct
55 79 55 79 55 79 ct
55 79 55 79 55 79 ct
55 79 55 79 55 79 ct
55 79 55 79 55 79 ct
55 79 55 79 55 79 ct
55 79 55 79 55 79 ct
55 79 55 79 55 79 ct
55 79 55 79 55 79 ct
55 79 55 79 55 79 ct
55 79 55 79 55 79 ct
55 79 55 79 55 79 ct
55 79 55 79 55 79 ct
55 79 55 79 55 79 ct
55 79 55 79 55 79 ct
55 79 55 79 55 79 ct
55 79 55 79 55 79 ct
55 79 55 79 55 79 ct
55 79 55 79 55 79 ct
55 79 55 79 55 79 ct
55 79 55 79 55 79 ct
55 79 55 79 55 79 ct
55 79 55 79 55 79 ct
55 79 55 79 55 79 ct
55 79 55 79 55 79 ct
55 79 55 79 55 79 ct
55 79 55 79 55 79 ct
55 79 55 79 55 79 ct
55 79 55 79 55 79 ct
55 79 55 79 55 79 ct
55 79 55 79 55 79 ct
55 79 55 79 55 79 ct
55 79 55 79 55 79 ct
55 79 55 79 55 79 ct
55 79 55 79 55 79 ct
55 79 55 79 55 79 ct
55 79 55 79 55 79 ct
55 79 55 79 55 79 ct
55 79 55 79 55 79 ct
55 79 55 79 55 79 ct
55 79 55 79 55 79 ct
55 79 55 79 55 79 ct
55 79 55 79 55 79 ct
55 79 55 79 55 79 ct
55 79 55 79 55 79 ct
55 79 55 79 55 79 ct
55 79 55 79 55 79 ct
55 79 55 79 55 79 ct
55 79 55 79 55 79 ct
55 79 55 79 55 79 ct
55 79 55 79 55 79 ct
55 79 55 79 55 79 ct
55 79 55 79 55 79 ct
55 79 55 79 55 79 ct
55 79 55 79 55 79 ct
55 79 55 79 55 79 ct
55 79 55 79 55 79 ct
55 79 55 79 55 79 ct
55 79 55 79 55 79 ct
55 79 55 79 55 79 ct
s
im
y
end
showpage
%End of CreEPS generated file
%%EOF
