<?xml version="1.0" encoding="utf-8"?>
<!-- Generator: Adobe Illustrator 21.0.2, SVG Export Plug-In . SVG Version: 6.00 Build 0)  -->
<svg version="1.1" id="Layer_1" xmlns="http://www.w3.org/2000/svg" xmlns:xlink="http://www.w3.org/1999/xlink" x="0px" y="0px"
	 viewBox="0 0 1366 768" style="enable-background:new 0 0 1366 768;" xml:space="preserve">
<style type="text/css">
	.st0{fill:none;stroke:#0088EE;stroke-width:2.8347;stroke-miterlimit:10;}
</style>
<g>
	<path class="st0" d="M757.5,366.1L757.5,366.1L757.5,366.1L757.5,366.1L757.5,366.1L757.5,366.1L757.5,366.1L757.5,366.1
		L757.5,366.1L757.5,366.1L757.5,366.1L757.5,366.1L757.5,366.1L757.5,366.1L757.5,366.1L757.5,366.1L757.5,366.1L757.5,366.1
		L757.5,366.1L757.5,366.1C757.5,366.1,758,366.1,757.5,366.1c-0.5,0-2.8,0-2.8,0S757.1,366.1,757.5,366.1
		C758,366.1,757.5,366.1,757.5,366.1L757.5,366.1L757.5,366.1L757.5,366.1L757.5,366.1L757.5,366.1L757.5,366.1L757.5,366.1
		L757.5,366.1C757.5,366.1,782.6,360,757.5,366.1c-25,6.1-124.7,30.7-150.2,36.9c-25.5,6.1-1.9,0-2.8,0s-2.4,0-2.8,0c-0.5,0,0,0,0,0
		l0,0l0,0l0,0l0,0l0,0l0,0l0,0l0,0l0,0l0,0l0,0l0,0l0,0l0,0l0,0l0,0l0,0l0,0l0,0l0,0l0,0l0,0l0,0"/>
</g>
</svg>
