%!PS-Adobe-3.0 EPSF-3.0
%%BoundingBox: 0 0 2902 2177
%%HiResBoundingBox: 0 0 2902.68 2177.01
%%Creator: CreEPSCREEPS_MAJOR_VERSION.CREEPS_MINOR_VERSION
%%CreationDate: Mon Oct 29 12:47:25 2018
%%EndComments
%CreEPS by Uwe Fabricius, http://uwefabricius.de/ &
%		  Thomas Pohl,   http://thomas-pohl.info/
gsave
/a {arc} bind def
/an {arcn} bind def
/at {arct} bind def
/c {closepath} bind def
/cc {concat} bind def
/cp {clip} bind def
/ct {curveto} bind def
/ec {eoclip} bind def
/ef {eofill} bind def
/f {fill} bind def
/fss {findfont exch scalefont setfont} bind def
/ic {initclip} bind def
/im {/OriginalCTM load setmatrix} bind def
/l {lineto} bind def
/m {moveto} bind def
/n {newpath} bind def
/o {dup 3 index add 2 index m 0 360 a c} bind def
/rct {curveto} bind def
/rf {rectfill} bind def
/rl {rlineto} bind def
/rm {rmoveto} bind def
/rs {rectstroke} bind def
/r {rotate} bind def
/s {stroke} bind def
/sc {setrgbcolor} bind def
/sd {setdash} bind def
/sg {setgray} bind def
/sj {setlinejoin} bind def
/sl {scale} bind def
/sp {setlinecap} bind def
/sw {setlinewidth} bind def
/t {translate} bind def
/x {gsave} bind def
/y {grestore} bind def
/ms {matrix currentmatrix} bind def
/ml {setmatrix} bind def
/ea {ms 8 1 roll t r sl 0 0 1 5 -2 roll a ml} bind def
/ean {ms 8 1 roll t r sl 0 0 1 5 -2 roll an ml} bind def
/e {ms 6 1 roll t r sl 1 0 m 0 0 1 0 360 a c ml} bind def
/tacwh {x n 0 0 m dup true charpath pathbbox 3 -1 roll 4 2 roll exch sub 3 1 roll y} bind def
/ta {m tacwh} bind def
/talb {ta neg 0 exch rmoveto pop pop show} bind def
/tacb {ta neg 0 exch rmoveto pop 2 div neg 0 rmoveto show} bind def
/tarb {ta neg 0 exch rmoveto pop neg 0 rmoveto show} bind def
/taln {ta pop pop pop show} bind def
/tacn {ta pop pop 2 div neg 0 rmoveto show} bind def
/tarn {ta pop pop neg 0 rmoveto show} bind def
/talc {ta add neg 2 div 0 exch rmoveto pop show} bind def
/tacc {ta add neg 2 div 0 exch rmoveto 2 div neg 0 rmoveto show} bind def
/tarc {ta add neg 2 div 0 exch rmoveto neg 0 rmoveto show} bind def
/talt {ta pop neg 0 exch rmoveto pop show} bind def
/tact {ta pop neg 0 exch rmoveto 2 div neg 0 rmoveto show} bind def
/tart {ta pop neg 0 exch rmoveto neg 0 rmoveto show} bind def
/tar {m tacwh x 5 -1 roll r} bind def
/tarlb {tar neg 0 exch rmoveto pop pop show y} bind def
/tarcb {tar neg 0 exch rmoveto pop 2 div neg 0 rmoveto show y} bind def
/tarrb {tar neg 0 exch rmoveto pop neg 0 rmoveto show y} bind def
/tarln {tar pop pop pop show y} bind def
/tarcn {tar pop pop 2 div neg 0 rmoveto show y} bind def
/tarrn {tar pop pop neg 0 rmoveto show y} bind def
/tarlc {tar add neg 2 div 0 exch rmoveto pop show y} bind def
/tarcc {tar add neg 2 div 0 exch rmoveto 2 div neg 0 rmoveto show y} bind def
/tarrc {tar add neg 2 div 0 exch rmoveto neg 0 rmoveto show y} bind def
/tarlt {tar pop neg 0 exch rmoveto pop show y} bind def
/tarct {tar pop neg 0 exch rmoveto 2 div neg 0 rmoveto show y} bind def
/tarrt {tar pop neg 0 exch rmoveto neg 0 rmoveto show y} bind def
/epsb {/b4_Inc_state save def /dict_count countdictstack def /op_count count 1 sub def userdict begin /showpage { } def 0 setgray 0 setlinecap 1 setlinewidth 0 setlinejoin 10 setmiterlimit [ ] 0 setdash newpath /languagelevel where {pop languagelevel 1 ne {false setstrokeadjust false setoverprint } if } if} bind def
/epse {count op_count sub {pop} repeat countdictstack dict_count sub {end} repeat b4_Inc_state restore} bind def
/latin {dup findfont dup length dict begin {1 index /FID ne {def} {pop pop} ifelse} forall /Encoding ISOLatin1Encoding def currentdict end definefont pop} bind def
/Courier-Bold latin
/Times-Roman latin
/Times-Italic latin
/Times-Bold latin
/Times-BoldItalic latin
/Helvetica latin
/Helvetica-Oblique latin
/Helvetica-Bold latin
/Helvetica-BoldOblique latin
/Courier latin
/Courier-Oblique latin
/Courier-Bold latin
/Courier-BoldOblique latin
2.83465 2.83465 sl
<< /OriginalCTM matrix currentmatrix >> begin
3.52778 /Times-Roman fss
1 sw
0 768 t
1 -1 sl
0 0.533333 0.933333 sc
227 135 m
227 135 227 135.167 227 135 ct
227 134.833 227 134 227 134 ct
227 134 227.167 134.833 227 135 ct
226.833 135.167 226.5 135 226 135 ct
225.5 135 224.333 135 224 135 ct
223.667 135 223.833 134.833 224 135 ct
224.167 135.167 225.167 136.333 225 136 ct
224.833 135.667 223.333 133.333 223 133 ct
222.667 132.667 222.5 133.667 223 134 ct
223.5 134.333 225 135 226 135 ct
227 135 228.5 134.167 229 134 ct
229.5 133.833 229 134 229 134 ct
229 134 229.167 134.333 229 134 ct
228.833 133.667 228 132.333 228 132 ct
228 131.667 228.667 131.667 229 132 ct
229.333 132.333 230 133.833 230 134 ct
230 134.167 229.167 133.333 229 133 ct
228.833 132.667 228.833 131.667 229 132 ct
229.167 132.333 230 135 230 135 ct
230 135 229.333 132.5 229 132 ct
228.667 131.5 228 131.833 228 132 ct
228 132.167 228.667 132.5 229 133 ct
229.333 133.5 229.667 134.5 230 135 ct
230.333 135.5 230.833 135.833 231 136 ct
231.167 136.167 231 136 231 136 ct
231 136 231 136 231 136 ct
231 136 230.833 135.833 231 136 ct
231.167 136.167 232 137 232 137 ct
232 137 231 136 231 136 ct
231 136 231.833 136.833 232 137 ct
232.167 137.167 232 137 232 137 ct
232 137 232.167 137.167 232 137 ct
231.833 136.833 231.167 136.167 231 136 ct
230.833 135.833 230.833 135.833 231 136 ct
231.167 136.167 232 137 232 137 ct
232 137 231.167 136 231 136 ct
230.833 136 231 136.833 231 137 ct
231 137.167 231 137.167 231 137 ct
231 136.833 231 136.167 231 136 ct
231 135.833 231 136 231 136 ct
231 136 231 136 231 136 ct
231 136 231.167 136 231 136 ct
230.833 136 230.167 136 230 136 ct
229.833 136 229.833 136 230 136 ct
230.167 136 230.833 136 231 136 ct
231.167 136 231 136 231 136 ct
231 136 231 136 231 136 ct
231 136 231 136 231 136 ct
231 136 231 136 231 136 ct
231 136 231 136 231 136 ct
231 136 231 136 231 136 ct
231 136 231 136 231 136 ct
231 136 230.833 135.833 231 136 ct
231.167 136.167 231.833 136.833 232 137 ct
232.167 137.167 232 137 232 137 ct
232 137 232 137 232 137 ct
232 137 232 137 232 137 ct
232 137 232 137 232 137 ct
232 137 232 137 232 137 ct
232 137 232 137 232 137 ct
232 137 232.167 137.167 232 137 ct
231.833 136.833 231 136 231 136 ct
231 136 231.833 136.833 232 137 ct
232.167 137.167 232 137 232 137 ct
232 137 231.833 137 232 137 ct
232.167 137 232.833 136.833 233 137 ct
233.167 137.167 233.167 138 233 138 ct
232.833 138 232.167 137.167 232 137 ct
231.833 136.833 232 137 232 137 ct
232 137 232 137 232 137 ct
232 137 231.833 137 232 137 ct
232.167 137 232.833 136.833 233 137 ct
233.167 137.167 233.167 138 233 138 ct
232.833 138 232.167 137 232 137 ct
231.833 137 232 138 232 138 ct
232 138 232 137.167 232 137 ct
232 136.833 232 137 232 137 ct
232 137 232.167 137.167 232 137 ct
231.833 136.833 231.167 136.167 231 136 ct
230.833 135.833 230.833 136 231 136 ct
231.167 136 231.5 135.667 232 136 ct
232.5 136.333 233.667 137.667 234 138 ct
234.333 138.333 234 137.833 234 138 ct
234 138.167 234 139 234 139 ct
234 139 241.833 136.333 234 138 ct
226.167 139.667 194.833 147.167 187 149 ct
179.167 150.833 187.5 149.333 187 149 ct
186.5 148.667 184.5 147.333 184 147 ct
183.5 146.667 184 147 184 147 ct
184 147 184 147 184 147 ct
184 147 184 147 184 147 ct
184 147 184 147 184 147 ct
184 147 184 147 184 147 ct
184 147 184 147 184 147 ct
184 147 184 147 184 147 ct
184 147 184 147 184 147 ct
184 147 184 147 184 147 ct
184 147 184 147 184 147 ct
184 147 184 147 184 147 ct
184 147 184 147 184 147 ct
184 147 184 147 184 147 ct
184 147 183.833 146.833 184 147 ct
184.167 147.167 184.833 147.833 185 148 ct
185.167 148.167 185 147.667 185 148 ct
185 148.333 185 149.667 185 150 ct
185 150.333 185 150 185 150 ct
185 150 185.833 150.833 185 150 ct
184.167 149.167 180.833 145.833 180 145 ct
179.167 144.167 180 145 180 145 ct
180 145 180 145 180 145 ct
180 145 180 145 180 145 ct
180 145 180 145 180 145 ct
180 145 180 145 180 145 ct
180 145 180 145 180 145 ct
180 145 180 145 180 145 ct
180 145 180 145 180 145 ct
180 145 180 145 180 145 ct
180 145 180 145 180 145 ct
180 145 180 145 180 145 ct
180 145 180 145 180 145 ct
180 145 180 145 180 145 ct
180 145 180 145 180 145 ct
180 145 180 145 180 145 ct
180 145 180 145 180 145 ct
180 145 180 145 180 145 ct
180 145 180 145 180 145 ct
180 145 180 145 180 145 ct
180 145 173.667 147 180 145 ct
186.333 143 211.667 135.333 218 133 ct
224.333 130.667 218 131.333 218 131 ct
218 130.667 218 131 218 131 ct
218 131 218 131 218 131 ct
218 131 218 131 218 131 ct
218 131 218 131 218 131 ct
218 131 218 131 218 131 ct
218 131 218 131 218 131 ct
s
im
y
end
showpage
%End of CreEPS generated file
%%EOF
