%!PS-Adobe-3.0 EPSF-3.0
%%BoundingBox: 0 0 2902 2177
%%HiResBoundingBox: 0 0 2902.68 2177.01
%%Creator: CreEPSCREEPS_MAJOR_VERSION.CREEPS_MINOR_VERSION
%%CreationDate: Mon Oct 29 14:02:14 2018
%%EndComments
%CreEPS by Uwe Fabricius, http://uwefabricius.de/ &
%		  Thomas Pohl,   http://thomas-pohl.info/
gsave
/a {arc} bind def
/an {arcn} bind def
/at {arct} bind def
/c {closepath} bind def
/cc {concat} bind def
/cp {clip} bind def
/ct {curveto} bind def
/ec {eoclip} bind def
/ef {eofill} bind def
/f {fill} bind def
/fss {findfont exch scalefont setfont} bind def
/ic {initclip} bind def
/im {/OriginalCTM load setmatrix} bind def
/l {lineto} bind def
/m {moveto} bind def
/n {newpath} bind def
/o {dup 3 index add 2 index m 0 360 a c} bind def
/rct {curveto} bind def
/rf {rectfill} bind def
/rl {rlineto} bind def
/rm {rmoveto} bind def
/rs {rectstroke} bind def
/r {rotate} bind def
/s {stroke} bind def
/sc {setrgbcolor} bind def
/sd {setdash} bind def
/sg {setgray} bind def
/sj {setlinejoin} bind def
/sl {scale} bind def
/sp {setlinecap} bind def
/sw {setlinewidth} bind def
/t {translate} bind def
/x {gsave} bind def
/y {grestore} bind def
/ms {matrix currentmatrix} bind def
/ml {setmatrix} bind def
/ea {ms 8 1 roll t r sl 0 0 1 5 -2 roll a ml} bind def
/ean {ms 8 1 roll t r sl 0 0 1 5 -2 roll an ml} bind def
/e {ms 6 1 roll t r sl 1 0 m 0 0 1 0 360 a c ml} bind def
/tacwh {x n 0 0 m dup true charpath pathbbox 3 -1 roll 4 2 roll exch sub 3 1 roll y} bind def
/ta {m tacwh} bind def
/talb {ta neg 0 exch rmoveto pop pop show} bind def
/tacb {ta neg 0 exch rmoveto pop 2 div neg 0 rmoveto show} bind def
/tarb {ta neg 0 exch rmoveto pop neg 0 rmoveto show} bind def
/taln {ta pop pop pop show} bind def
/tacn {ta pop pop 2 div neg 0 rmoveto show} bind def
/tarn {ta pop pop neg 0 rmoveto show} bind def
/talc {ta add neg 2 div 0 exch rmoveto pop show} bind def
/tacc {ta add neg 2 div 0 exch rmoveto 2 div neg 0 rmoveto show} bind def
/tarc {ta add neg 2 div 0 exch rmoveto neg 0 rmoveto show} bind def
/talt {ta pop neg 0 exch rmoveto pop show} bind def
/tact {ta pop neg 0 exch rmoveto 2 div neg 0 rmoveto show} bind def
/tart {ta pop neg 0 exch rmoveto neg 0 rmoveto show} bind def
/tar {m tacwh x 5 -1 roll r} bind def
/tarlb {tar neg 0 exch rmoveto pop pop show y} bind def
/tarcb {tar neg 0 exch rmoveto pop 2 div neg 0 rmoveto show y} bind def
/tarrb {tar neg 0 exch rmoveto pop neg 0 rmoveto show y} bind def
/tarln {tar pop pop pop show y} bind def
/tarcn {tar pop pop 2 div neg 0 rmoveto show y} bind def
/tarrn {tar pop pop neg 0 rmoveto show y} bind def
/tarlc {tar add neg 2 div 0 exch rmoveto pop show y} bind def
/tarcc {tar add neg 2 div 0 exch rmoveto 2 div neg 0 rmoveto show y} bind def
/tarrc {tar add neg 2 div 0 exch rmoveto neg 0 rmoveto show y} bind def
/tarlt {tar pop neg 0 exch rmoveto pop show y} bind def
/tarct {tar pop neg 0 exch rmoveto 2 div neg 0 rmoveto show y} bind def
/tarrt {tar pop neg 0 exch rmoveto neg 0 rmoveto show y} bind def
/epsb {/b4_Inc_state save def /dict_count countdictstack def /op_count count 1 sub def userdict begin /showpage { } def 0 setgray 0 setlinecap 1 setlinewidth 0 setlinejoin 10 setmiterlimit [ ] 0 setdash newpath /languagelevel where {pop languagelevel 1 ne {false setstrokeadjust false setoverprint } if } if} bind def
/epse {count op_count sub {pop} repeat countdictstack dict_count sub {end} repeat b4_Inc_state restore} bind def
/latin {dup findfont dup length dict begin {1 index /FID ne {def} {pop pop} ifelse} forall /Encoding ISOLatin1Encoding def currentdict end definefont pop} bind def
/Courier-Bold latin
/Times-Roman latin
/Times-Italic latin
/Times-Bold latin
/Times-BoldItalic latin
/Helvetica latin
/Helvetica-Oblique latin
/Helvetica-Bold latin
/Helvetica-BoldOblique latin
/Courier latin
/Courier-Oblique latin
/Courier-Bold latin
/Courier-BoldOblique latin
2.83465 2.83465 sl
<< /OriginalCTM matrix currentmatrix >> begin
3.52778 /Times-Roman fss
1 sw
0 768 t
1 -1 sl
0 0.533333 0.933333 sc
217 129 m
217 129 217 129 217 129 ct
217 129 217 129 217 129 ct
217 129 217 129 217 129 ct
217 129 217 129 217 129 ct
217 129 217 129 217 129 ct
217 129 217 129 217 129 ct
217 129 217 129 217 129 ct
217 129 217 129 217 129 ct
217 129 217 129 217 129 ct
217 129 217 129 217 129 ct
217 129 217 129 217 129 ct
217 129 217 129 217 129 ct
217 129 217 129 217 129 ct
217 129 217 129 217 129 ct
217 129 247.5 133.833 217 129 ct
186.5 124.167 64.6667 104.5 34 100 ct
3.33333 95.5 33.1667 101.667 33 102 ct
32.8333 102.333 30.8333 101.333 33 102 ct
35.1667 102.667 43.8333 105.667 46 106 ct
48.1667 106.333 42.5 106.833 46 104 ct
49.5 101.167 63.5 91.5 67 89 ct
70.5 86.5 66.8333 89 67 89 ct
67.1667 89 68 89 68 89 ct
68 89 67.3333 89.8333 67 89 ct
66.6667 88.1667 66.3333 84.3333 66 84 ct
65.6667 83.6667 65.1667 86.5 65 87 ct
64.8333 87.5 65 87 65 87 ct
65 87 65 87 65 87 ct
65 87 64.1667 85.6667 65 87 ct
65.8333 88.3333 68.1667 95.1667 70 95 ct
71.8333 94.8333 75 87.5 76 86 ct
77 84.5 88.1667 84.8333 76 86 ct
63.8333 87.1667 -11.6667 87.5 3 93 ct
17.6667 98.5 137 114.667 164 119 ct
191 123.333 165 119 165 119 ct
165 119 164.167 119 164 119 ct
163.833 119 164 119 164 119 ct
164 119 164 119 164 119 ct
164 119 164 119 164 119 ct
164 119 164 119 164 119 ct
164 119 164 119 164 119 ct
164 119 164 119 164 119 ct
164 119 164 119 164 119 ct
164 119 164 119 164 119 ct
164 119 164 119 164 119 ct
164 119 164 119 164 119 ct
164 119 164 119 164 119 ct
164 119 164 119 164 119 ct
164 119 164 119 164 119 ct
164 119 164 119 164 119 ct
164 119 164 119 164 119 ct
164 119 164 119 164 119 ct
164 119 164 119 164 119 ct
164 119 164 119 164 119 ct
164 119 164 119 164 119 ct
164 119 164 119 164 119 ct
164 119 164 119 164 119 ct
164 119 164 119 164 119 ct
164 119 164 119 164 119 ct
164 119 164 119 164 119 ct
164 119 164 119 164 119 ct
164 119 164 119 164 119 ct
164 119 164 119 164 119 ct
164 119 164 119 164 119 ct
164 119 164 119 164 119 ct
164 119 164 119 164 119 ct
164 119 164 119 164 119 ct
164 119 164 119 164 119 ct
164 119 164 119 164 119 ct
164 119 164 119 164 119 ct
164 119 164 119 164 119 ct
164 119 164 119 164 119 ct
s
im
y
end
showpage
%End of CreEPS generated file
%%EOF
