%!PS-Adobe-3.0 EPSF-3.0
%%BoundingBox: 0 0 2902 2177
%%HiResBoundingBox: 0 0 2902.68 2177.01
%%Creator: CreEPSCREEPS_MAJOR_VERSION.CREEPS_MINOR_VERSION
%%CreationDate: Mon Oct 29 01:23:20 2018
%%EndComments
%CreEPS by Uwe Fabricius, http://uwefabricius.de/ &
%		  Thomas Pohl,   http://thomas-pohl.info/
gsave
/a {arc} bind def
/an {arcn} bind def
/at {arct} bind def
/c {closepath} bind def
/cc {concat} bind def
/cp {clip} bind def
/ct {curveto} bind def
/ec {eoclip} bind def
/ef {eofill} bind def
/f {fill} bind def
/fss {findfont exch scalefont setfont} bind def
/ic {initclip} bind def
/im {/OriginalCTM load setmatrix} bind def
/l {lineto} bind def
/m {moveto} bind def
/n {newpath} bind def
/o {dup 3 index add 2 index m 0 360 a c} bind def
/rct {curveto} bind def
/rf {rectfill} bind def
/rl {rlineto} bind def
/rm {rmoveto} bind def
/rs {rectstroke} bind def
/r {rotate} bind def
/s {stroke} bind def
/sc {setrgbcolor} bind def
/sd {setdash} bind def
/sg {setgray} bind def
/sj {setlinejoin} bind def
/sl {scale} bind def
/sp {setlinecap} bind def
/sw {setlinewidth} bind def
/t {translate} bind def
/x {gsave} bind def
/y {grestore} bind def
/ms {matrix currentmatrix} bind def
/ml {setmatrix} bind def
/ea {ms 8 1 roll t r sl 0 0 1 5 -2 roll a ml} bind def
/ean {ms 8 1 roll t r sl 0 0 1 5 -2 roll an ml} bind def
/e {ms 6 1 roll t r sl 1 0 m 0 0 1 0 360 a c ml} bind def
/tacwh {x n 0 0 m dup true charpath pathbbox 3 -1 roll 4 2 roll exch sub 3 1 roll y} bind def
/ta {m tacwh} bind def
/talb {ta neg 0 exch rmoveto pop pop show} bind def
/tacb {ta neg 0 exch rmoveto pop 2 div neg 0 rmoveto show} bind def
/tarb {ta neg 0 exch rmoveto pop neg 0 rmoveto show} bind def
/taln {ta pop pop pop show} bind def
/tacn {ta pop pop 2 div neg 0 rmoveto show} bind def
/tarn {ta pop pop neg 0 rmoveto show} bind def
/talc {ta add neg 2 div 0 exch rmoveto pop show} bind def
/tacc {ta add neg 2 div 0 exch rmoveto 2 div neg 0 rmoveto show} bind def
/tarc {ta add neg 2 div 0 exch rmoveto neg 0 rmoveto show} bind def
/talt {ta pop neg 0 exch rmoveto pop show} bind def
/tact {ta pop neg 0 exch rmoveto 2 div neg 0 rmoveto show} bind def
/tart {ta pop neg 0 exch rmoveto neg 0 rmoveto show} bind def
/tar {m tacwh x 5 -1 roll r} bind def
/tarlb {tar neg 0 exch rmoveto pop pop show y} bind def
/tarcb {tar neg 0 exch rmoveto pop 2 div neg 0 rmoveto show y} bind def
/tarrb {tar neg 0 exch rmoveto pop neg 0 rmoveto show y} bind def
/tarln {tar pop pop pop show y} bind def
/tarcn {tar pop pop 2 div neg 0 rmoveto show y} bind def
/tarrn {tar pop pop neg 0 rmoveto show y} bind def
/tarlc {tar add neg 2 div 0 exch rmoveto pop show y} bind def
/tarcc {tar add neg 2 div 0 exch rmoveto 2 div neg 0 rmoveto show y} bind def
/tarrc {tar add neg 2 div 0 exch rmoveto neg 0 rmoveto show y} bind def
/tarlt {tar pop neg 0 exch rmoveto pop show y} bind def
/tarct {tar pop neg 0 exch rmoveto 2 div neg 0 rmoveto show y} bind def
/tarrt {tar pop neg 0 exch rmoveto neg 0 rmoveto show y} bind def
/epsb {/b4_Inc_state save def /dict_count countdictstack def /op_count count 1 sub def userdict begin /showpage { } def 0 setgray 0 setlinecap 1 setlinewidth 0 setlinejoin 10 setmiterlimit [ ] 0 setdash newpath /languagelevel where {pop languagelevel 1 ne {false setstrokeadjust false setoverprint } if } if} bind def
/epse {count op_count sub {pop} repeat countdictstack dict_count sub {end} repeat b4_Inc_state restore} bind def
/latin {dup findfont dup length dict begin {1 index /FID ne {def} {pop pop} ifelse} forall /Encoding ISOLatin1Encoding def currentdict end definefont pop} bind def
/Courier-Bold latin
/Times-Roman latin
/Times-Italic latin
/Times-Bold latin
/Times-BoldItalic latin
/Helvetica latin
/Helvetica-Oblique latin
/Helvetica-Bold latin
/Helvetica-BoldOblique latin
/Courier latin
/Courier-Oblique latin
/Courier-Bold latin
/Courier-BoldOblique latin
2.83465 2.83465 sl
<< /OriginalCTM matrix currentmatrix >> begin
3.52778 /Times-Roman fss
1 sw
0 768 t
1 -1 sl
0 0.533333 0.933333 sc
221 138 m
221 138 220.833 137.833 221 138 ct
221.167 138.167 250.333 151 222 139 ct
193.667 127 79.5 78.1667 51 66 ct
22.5 53.8333 48.1667 55 51 66 ct
53.8333 77 64.3333 124.667 68 132 ct
71.6667 139.333 61.1667 108 73 110 ct
84.8333 112 128 138.167 139 144 ct
150 149.833 139 144.833 139 145 ct
139 145.167 139 145 139 145 ct
139 145 139 145 139 145 ct
139 145 139 145 139 145 ct
139 145 139 145 139 145 ct
139 145 139 145 139 145 ct
139 145 139 145 139 145 ct
139 145 139 145 139 145 ct
139 145 139 145 139 145 ct
139 145 139 145 139 145 ct
139 145 139 145 139 145 ct
139 145 139 145 139 145 ct
139 145 139 145 139 145 ct
139 145 139 145 139 145 ct
139 145 139 145 139 145 ct
139 145 139 145 139 145 ct
139 145 139 145 139 145 ct
139 145 139 145 139 145 ct
139 145 139 145 139 145 ct
139 145 139 145 139 145 ct
139 145 139 145 139 145 ct
139 145 139 145 139 145 ct
139 145 139 145 139 145 ct
s
im
y
end
showpage
%End of CreEPS generated file
%%EOF
